{
  "colt_saa_1873": {
    "module": "samples.data",
    "class": "Handgun",
    "parameters": [
      {
        "name": "name",
        "type": "str",
        "value": "Colt 1873 Single Action Army"
      },
      {
        "name": "designer",
        "type": "str",
        "value": "William Mason & Charles Brinckerhoff Richards"
      },
      {
        "name": "manufacturer",
        "type": "str",
        "value": "Colt's Patent Firearms Manufacturing Company"
      },
      {
        "name": "model",
        "type": "str",
        "value": "1873 Army"
      },
      {
        "name": "year",
        "type": "int",
        "value": 1873
      },
      {
        "name": "type",
        "type": "str",
        "value": "Single Action Revolver"
      }
    ]
  },
  "lefaucheux_m1854": {
    "module": "samples.data",
    "class": "Handgun",
    "parameters": [
      {
        "name": "name",
        "type": "str",
        "value": "Lefaucheux M1854"
      },
      {
        "name": "designer",
        "type": "str",
        "value": "Casimir & Eugene Lefaucheux"
      },
      {
        "name": "manufacturer",
        "type": "str",
        "value": "Lefaucheux Company, Paris"
      },
      {
        "name": "model",
        "type": "str",
        "value": "M1854"
      },
      {
        "name": "year",
        "type": "int",
        "value": 1854
      },
      {
        "name": "type",
        "type": "str",
        "value": "Single Action Revolver"
      }
    ]
  },
  "lemat_revolver": {
    "module": "samples.data",
    "class": "Handgun",
    "parameters": [
      {
        "name": "name",
        "type": "str",
        "value": "LeMat Revolver"
      },
      {
        "name": "designer",
        "type": "str",
        "value": "Jean Alexandre LeMat"
      },
      {
        "name": "manufacturer",
        "type": "str",
        "value": "John Krider, Philadelphia"
      },
      {
        "name": "model",
        "type": "str",
        "value": "Revolver"
      },
      {
        "name": "year",
        "type": "int",
        "value": 1856
      },
      {
        "name": "type",
        "type": "str",
        "value": "Single Action Revolver"
      }
    ]
  }
}
